[
  {
  "id": "1",
  "productArticle": 1001,
  "name": "Мобильный телефон Samsung Galaxy M52 5G 6/128GB Black",
  "Price": 13499,
  "color": "Black",
  "routeImg": "https://content.rozetka.com.ua/goods/images/big/225753634.jpg"
  },
  {
  "id": "2",
  "productArticle": 1002,
  "name": "Мобильный телефон Apple iPhone 11 64GB PRODUCT Red Slim Box",
  "Price": 22999,
  "color": "Red",
  "routeImg": "https://content1.rozetka.com.ua/goods/images/big/152728355.jpg"
  },
  {
  "id": "3",
  "productArticle": 1003,
  "name": "Мобильный телефон Xiaomi Redmi Note 10S 6/64GB Onyx Gray",
  "Price": 9699,
  "color": "Black",
  "routeImg": "https://content1.rozetka.com.ua/goods/images/big/179450853.jpg"
  },
  {
  "id": "4",
  "productArticle": 1004,
  "name": "Мобильный телефон Samsung Galaxy A52 4/128GB Blue",
  "Price": 12999,
  "color": "Blue",
  "routeImg": "https://content.rozetka.com.ua/goods/images/big/166279499.jpg"
  },
  {
  "id": "5",
  "productArticle": 1005,
  "name": "Мобильный телефон Huawei Nova 8i 6/128GB Moonlight Silver (51096KMH)",
  "Price": 8299,
  "color": "Silver",
  "routeImg": "https://content1.rozetka.com.ua/goods/images/big/230224784.jpg"
  },
  {
  "id": "6",
  "productArticle": 1006,
  "name": "Мобильный телефон Xiaomi Redmi Note 10S 6/128GB Onyx Gray (795159)",
  "Price": 10499,
  "color": "Gray",
  "routeImg": "https://content.rozetka.com.ua/goods/images/big/181185746.jpg"
  },
  {
  "id": "7",
  "productArticle": 1007,
  "name": "Мобильный телефон Realme 8 6/128GB Cyber Silver (6941399044883)",
  "Price": 9499,
  "color": "Silver",
  "routeImg": "https://content2.rozetka.com.ua/goods/images/big/201929688.jpg"
  },
  {
  "id": "8",
  "productArticle": 1008,
  "name": "Мобильный телефон Samsung Galaxy A32 4/64GB Blue",
  "Price": 9599,
  "color": "Blue",
  "routeImg": "https://content2.rozetka.com.ua/goods/images/big/165913388.jpg"
  },
  {
  "id": "9",
  "productArticle": 1009,
  "name": "Мобильный телефон Motorola Moto G60 6/128GB Haze Gray (PANB0007RS)",
  "Price": 8999,
  "color": "Black",
  "routeImg": "https://content2.rozetka.com.ua/goods/images/big/220713124.jpg"
  },
  {
  "id": "10",
  "productArticle": 1010,
  "name": "Мобильный телефон Xiaomi Redmi 9A 2/32GB Granite Gray (M2006C3LG)",
  "Price": "4399",
  "color": "Gray",
  "routeImg": "https://content2.rozetka.com.ua/goods/images/big/138170557.jpg"
  }
  
]